C:\Users\werapan\Documents\NetBeansProjects\OXProgram\src\main\java\com\mycompany\oxprogram\MainProgram.java
C:\Users\werapan\Documents\NetBeansProjects\OXProgram\src\main\java\com\mycompany\oxprogram\Game.java
C:\Users\werapan\Documents\NetBeansProjects\OXProgram\src\main\java\com\mycompany\oxprogram\Player.java
C:\Users\werapan\Documents\NetBeansProjects\OXProgram\src\main\java\com\mycompany\oxprogram\Table.java
